…
``` r
# This will only set the values to those columns that have a value for 
# win_conditions
wc_matches <- wc_matches %>%
  mutate(penalties = ifelse(str_detect(win_conditions, 'penalties'), 1, 0),
         aet = ifelse(!is.na(win_conditions), 1, 0))

# Set all the NA values in the two columns to zero
wc_matches[c("penalties", "aet")][is.na(wc_matches[c("penalties", "aet")])] <- 0

wc_matches
```

    ## # A tibble: 900 × 17
    ##     year country city      stage home_…¹ away_…² home_…³ away_…⁴ outcome win_c…⁵
    ##    <dbl> <chr>   <chr>     <chr> <chr>   <chr>     <dbl>   <dbl> <chr>   <chr>  
    ##  1  1930 Uruguay Montevid… Grou… France  Mexico        4       1 H       <NA>   
    ##  2  1930 Uruguay Montevid… Grou… Belgium United…       0       3 A       <NA>   
    ##  3  1930 Uruguay Montevid… Grou… Brazil  Yugosl…       1       2 A       <NA>   
    ##  4  1930 Uruguay Montevid… Grou… Peru    Romania       1       3 A       <NA>   
    ##  5  1930 Uruguay Montevid… Grou… Argent… France        1       0 H       <NA>   
    ##  6  1930 Uruguay Montevid… Grou… Chile   Mexico        3       0 H       <NA>   
    ##  7  1930 Uruguay Montevid… Grou… Bolivia Yugosl…       0       4 A       <NA>   
    ##  8  1930 Uruguay Montevid… Grou… Paragu… United…       0       3 A       <NA>   
    ##  9  1930 Uruguay Montevid… Grou… Uruguay Peru          1       0 H       <NA>   
    ## 10  1930 Uruguay Montevid… Grou… Argent… Mexico        6       3 H       <NA>   
    ## # … with 890 more rows, 7 more variables: winning_team <chr>,
    ## #   losing_team <chr>, date <date>, month <chr>, dayofweek <chr>,
    ## #   penalties <dbl>, aet <dbl>, and abbreviated variable names ¹​home_team,
    ## #   ²​away_team, ³​home_score, ⁴​away_score, ⁵​win_conditions
…
